%YAML 1.1
%TAG !u! tag:unity3d.com,2011:
--- !u!114 &11400000
MonoBehaviour:
  m_ObjectHideFlags: 0
  m_CorrespondingSourceObject: {fileID: 0}
  m_PrefabInstance: {fileID: 0}
  m_PrefabAsset: {fileID: 0}
  m_GameObject: {fileID: 0}
  m_Enabled: 1
  m_EditorHideFlags: 0
  m_Script: {fileID: 11500000, guid: ebd5a090c931647479b9726391491fe5, type: 3}
  m_Name: -1_CitizenSpawn
  m_EditorClassIdentifier: 
  nomenclature: CitizenSpawnPoint
  isSolid: 0
  isDrawable: 0
  isTargetable: 0
  backTextureID: 0
  frontTextureID: 0
  topTextureID: 0
  botTextureID: 0
  leftTextureID: 0
  rightTextureID: 0
  spawnedObject: {fileID: 638131532046002401, guid: 98760ac4a75e88948bdf676f8419b550,
    type: 3}
  isCentred: 1
  currSpawnedObject: {fileID: 0}
