%YAML 1.1
%TAG !u! tag:unity3d.com,2011:
--- !u!114 &11400000
MonoBehaviour:
  m_ObjectHideFlags: 0
  m_CorrespondingSourceObject: {fileID: 0}
  m_PrefabInstance: {fileID: 0}
  m_PrefabAsset: {fileID: 0}
  m_GameObject: {fileID: 0}
  m_Enabled: 1
  m_EditorHideFlags: 0
  m_Script: {fileID: 11500000, guid: 143ab0d0c8706ce49bbb7d1d3dc838b8, type: 3}
  m_Name: 0_Air
  m_EditorClassIdentifier: 
  nomenclature: Air
  isSolid: 0
  isDrawable: 0
  isTargetable: 0
  backTextureID: 0
  frontTextureID: 0
  topTextureID: 0
  botTextureID: 0
  leftTextureID: 0
  rightTextureID: 0
