%YAML 1.1
%TAG !u! tag:unity3d.com,2011:
--- !u!114 &11400000
MonoBehaviour:
  m_ObjectHideFlags: 0
  m_CorrespondingSourceObject: {fileID: 0}
  m_PrefabInstance: {fileID: 0}
  m_PrefabAsset: {fileID: 0}
  m_GameObject: {fileID: 0}
  m_Enabled: 1
  m_EditorHideFlags: 0
  m_Script: {fileID: 11500000, guid: 143ab0d0c8706ce49bbb7d1d3dc838b8, type: 3}
  m_Name: 2_Dirt
  m_EditorClassIdentifier: 
  nomenclature: Dirt
  isSolid: 1
  isDrawable: 1
  isTargetable: 1
  hitPoints: 75
  backTextureID: 2
  frontTextureID: 2
  topTextureID: 2
  botTextureID: 2
  leftTextureID: 2
  rightTextureID: 2
