%YAML 1.1
%TAG !u! tag:unity3d.com,2011:
--- !u!114 &11400000
MonoBehaviour:
  m_ObjectHideFlags: 0
  m_CorrespondingSourceObject: {fileID: 0}
  m_PrefabInstance: {fileID: 0}
  m_PrefabAsset: {fileID: 0}
  m_GameObject: {fileID: 0}
  m_Enabled: 1
  m_EditorHideFlags: 0
  m_Script: {fileID: 11500000, guid: 011535f22753e934f9f82eebd6a4c12e, type: 3}
  m_Name: 4_CherryBush
  m_EditorClassIdentifier: 
  nomenclature: CherryBush
  isSolid: 0
  isDrawable: 1
  isTargetable: 1
  hitPoints: 200
  backTextureID: 5
  frontTextureID: 5
  topTextureID: 5
  botTextureID: 5
  leftTextureID: 5
  rightTextureID: 5
