%YAML 1.1
%TAG !u! tag:unity3d.com,2011:
--- !u!114 &11400000
MonoBehaviour:
  m_ObjectHideFlags: 0
  m_CorrespondingSourceObject: {fileID: 0}
  m_PrefabInstance: {fileID: 0}
  m_PrefabAsset: {fileID: 0}
  m_GameObject: {fileID: 0}
  m_Enabled: 1
  m_EditorHideFlags: 0
  m_Script: {fileID: 11500000, guid: fadcd905c49d7364e8eae261f8254526, type: 3}
  m_Name: Database
  m_EditorClassIdentifier: 
  serializationData:
    SerializedFormat: 2
    SerializedBytes: 
    ReferencedUnityObjects:
    - {fileID: 11400000, guid: 970a609d17af1ef49819f6e3dca12e85, type: 2}
    - {fileID: 11400000, guid: ae420fc27e7c22142903e3680e29d8d1, type: 2}
    - {fileID: 11400000, guid: c62b05f30166329499aa29f494433941, type: 2}
    - {fileID: 11400000, guid: 4b81effaff45f654e9fc94c2240fdccd, type: 2}
    - {fileID: 11400000, guid: fcb175fce9fd6a8489d9c7f35b2920e1, type: 2}
    - {fileID: 11400000, guid: e405500f89302bb4993ff86afdde459e, type: 2}
    SerializedBytesString: 
    Prefab: {fileID: 0}
    PrefabModificationsReferencedUnityObjects: []
    PrefabModifications: []
    SerializationNodes:
    - Name: cubesDatas
      Entry: 7
      Data: 0|System.Collections.Generic.Dictionary`2[[System.Int16, mscorlib],[CubeData,
        Assembly-CSharp]], mscorlib
    - Name: comparer
      Entry: 7
      Data: 1|System.Collections.Generic.GenericEqualityComparer`1[[System.Int16,
        mscorlib]], mscorlib
    - Name: 
      Entry: 8
      Data: 
    - Name: 
      Entry: 12
      Data: 6
    - Name: 
      Entry: 7
      Data: 
    - Name: $k
      Entry: 3
      Data: 0
    - Name: $v
      Entry: 10
      Data: 0
    - Name: 
      Entry: 8
      Data: 
    - Name: 
      Entry: 7
      Data: 
    - Name: $k
      Entry: 3
      Data: 1
    - Name: $v
      Entry: 10
      Data: 1
    - Name: 
      Entry: 8
      Data: 
    - Name: 
      Entry: 7
      Data: 
    - Name: $k
      Entry: 3
      Data: 2
    - Name: $v
      Entry: 10
      Data: 2
    - Name: 
      Entry: 8
      Data: 
    - Name: 
      Entry: 7
      Data: 
    - Name: $k
      Entry: 3
      Data: 3
    - Name: $v
      Entry: 10
      Data: 3
    - Name: 
      Entry: 8
      Data: 
    - Name: 
      Entry: 7
      Data: 
    - Name: $k
      Entry: 3
      Data: 4
    - Name: $v
      Entry: 10
      Data: 4
    - Name: 
      Entry: 8
      Data: 
    - Name: 
      Entry: 7
      Data: 
    - Name: $k
      Entry: 3
      Data: -1
    - Name: $v
      Entry: 10
      Data: 5
    - Name: 
      Entry: 8
      Data: 
    - Name: 
      Entry: 13
      Data: 
    - Name: 
      Entry: 8
      Data: 
